\relax 
\catcode `"\active 
\citation{R.Shefer2001}
\citation{159906}
\citation{6955160}
\select@language{ngerman}
\@writefile{toc}{\select@language{ngerman}}
\@writefile{lof}{\select@language{ngerman}}
\@writefile{lot}{\select@language{ngerman}}
\@writefile{toc}{\contentsline {section}{\numberline {1}Problem, Goal and Approach}{1}}
\@writefile{toc}{\contentsline {section}{\numberline {2}Previous Work}{1}}
\@writefile{toc}{\contentsline {section}{\numberline {3}Implementation}{1}}
\bibstyle{IEEEtran}
\bibdata{bibliography}
\bibcite{R.Shefer2001}{1}
\bibcite{159906}{2}
\bibcite{6955160}{3}
\@writefile{toc}{\contentsline {section}{\numberline {4}Evaluation}{2}}
\@writefile{toc}{\contentsline {section}{\numberline {5}Risks}{2}}
\@writefile{toc}{\contentsline {section}{\numberline {6}Time Schedule}{2}}
